[
  {
    "title":"Keep your creativity flowing at our craft workshop!",
    "date":"24 Nov 2019",
    "image":"/site-images/activity/listing1.jpg",
    "location":"SAFRA - Jurong",
    "url":"/activity-article"
  },
  {
    "title":"Venture beyond your comfort zone with new destinations in 2019",
    "date":"26 Feb 2019 - 31 Dec 2019",
    "image":"/site-images/activity/listing2.jpg",
    "location":"SAFRA - Yishun",
    "url":"/activity-article"
  },
  {
    "title":"Baking can be fun when it's done with family",
    "date":"20 Jan 2018 - 31 Dec 2019",
    "image":"/site-images/activity/listing3.jpg",
    "location":"SAFRA - Toa Payoh, SAFRA - Jurong",
    "url":"/activity-article"
  },
  {
    "title":"Have a friendly game of futsal with fellow kakis",
    "date":"1 Apr 2019 - 31 Mar 2020",
    "image":"/site-images/activity/listing4.jpg",
    "location":"SAFRA - Tampines",
    "url":"/activity-article"
  },
  {
    "title":"Celebrate your child's birthday at SAFRA Yishun",
    "date":"3 Jul 2018 - 31 Dec 2019",
    "image":"/site-images/activity/listing5.jpg",
    "location":"SAFRA - Yishun",
    "url":"/activity-article"
  },
  {
    "title":"Sample title",
    "date":"26 Feb 2019 - 31 Dec 2019",
    "image":"https://place-hold.it/300x160",
    "location":"Sample location",
    "url":"/activity-article"
  },
  {
    "title":"Sample title",
    "date":"26 Feb 2019 - 31 Dec 2019",
    "image":"https://place-hold.it/300x160",
    "location":"Sample location",
    "url":"/activity-article"
  },
  {
    "title":"Sample title",
    "date":"26 Feb 2019 - 31 Dec 2019",
    "image":"https://place-hold.it/300x160",
    "location":"Sample location",
    "url":"/activity-article"
  },
  {
    "title":"Sample title",
    "date":"26 Feb 2019 - 31 Dec 2019",
    "image":"https://place-hold.it/300x160",
    "location":"Sample location",
    "url":"/activity-article"
  },
  {
    "title":"Sample title",
    "date":"26 Feb 2019 - 31 Dec 2019",
    "image":"https://place-hold.it/300x160",
    "location":"Sample location",
    "url":"/activity-article"
  },
  {
    "title":"Sample title",
    "date":"26 Feb 2019 - 31 Dec 2019",
    "image":"https://place-hold.it/300x160",
    "location":"Sample location",
    "url":"/activity-article"
  },
  {
    "title":"Sample title",
    "date":"26 Feb 2019 - 31 Dec 2019",
    "image":"https://place-hold.it/300x160",
    "location":"Sample location",
    "url":"/activity-article"
  },
  {
    "title":"Sample title",
    "date":"26 Feb 2019 - 31 Dec 2019",
    "image":"https://place-hold.it/300x160",
    "location":"Sample location",
    "url":"/activity-article"
  },
  {
    "title":"Sample title",
    "date":"26 Feb 2019 - 31 Dec 2019",
    "image":"https://place-hold.it/300x160",
    "location":"Sample location",
    "url":"/activity-article"
  },
  {
    "title":"Sample title",
    "date":"26 Feb 2019 - 31 Dec 2019",
    "image":"https://place-hold.it/300x160",
    "location":"Sample location",
    "url":"/activity-article"
  },
  {
    "title":"Sample title",
    "date":"26 Feb 2019 - 31 Dec 2019",
    "image":"https://place-hold.it/300x160",
    "location":"Sample location",
    "url":"/activity-article"
  },
  {
    "title":"Sample title",
    "date":"26 Feb 2019 - 31 Dec 2019",
    "image":"https://place-hold.it/300x160",
    "location":"Sample location",
    "url":"/activity-article"
  }
]