{
  "primary":[
    {
      "name":"Gym Facilities & Services",
      "url":"#"
    },
    {
      "name":"Membership & Fees",
      "url":"#"
    },
    {
      "name":"Promotions",
      "url":"#"
    },
    {
      "name":"IPPT@SAFRA",
      "url":"#"
    }
  ]
}