[
  {
    "title":"McDonald’s Gift Certificate",
    "image":"/site-images/e-vouchers/voucher-1.png"
  },
  {
    "title":"KFC Voucher",
    "image":"/site-images/e-vouchers/voucher-2.png"
  },
  {
    "title":"SAFRA’s Reward Voucher",
    "image":"/site-images/e-vouchers/voucher-3.png"
  }
]