[
  {
    "type":"Activity",
    "title":"Freestyler",
    "location":"SAFRA Jurong, Dance Studio",
    "image":"/site-images/explore/explore1.jpg",
    "url":"/activity-article"
  },
  {
    "type":"Event",
    "title":"Hiking in Kulen Mountain",
    "location":"SAFRA - Yishun",
    "image":"/site-images/explore/explore2.jpg",
    "url":"/event-article"
  },
  {
    "type":"Activity",
    "title":"Indoor Air Weapons Range",
    "location":"SAFRA - Yishun",
    "image":"/site-images/explore/explore3.jpg",
    "url":"/IAWR"
  },
  {
    "type":"Course",
    "title":"My Family Fiesta",
    "location":"SAFRA - Yishun",
    "image":"/site-images/explore/explore4.jpg",
    "url":"/activity-article"
  },
  {
    "type":"Event",
    "title":"Lorem ipsum dolar ",
    "location":"SAFRA - Yishun",
    "image":"/site-images/explore/explore1.jpg",
    "url":"/event-article"
  },
  {
    "type":"Activity",
    "title":"Lorem ipsum dolae",
    "location":"SAFRA - Yishun",
    "image":"/site-images/explore/explore3.jpg",
    "url":"/activity-article"
  }
]