[
  {
    "title":"Barbeque Pits",
    "description":"Got a feel to grill? Book barbeque pits online or drop by the front desk at any SAFRA club.",
    "location":"SAFRA - Jurong, SAFRA - Mount Faber, SAFRA - Tampines, SAFRA - Toa Payoh, SAFRA - Yishun",
    "image":"/site-images/facilities/listing1.jpg",
    "url":"/facilities-article"
  },
  {
    "title":"Allamanda Room @ Yishun",
    "description":"Holding a meeting or seminar? The Allamanda Room can accommodate up to 100 people and is ideal for",
    "location":"SAFRA - Yishun",
    "image":"/site-images/facilities/listing2.jpg",
    "url":"/function-rooms"
  },
  {
    "title":"Indoor Air Weapons Range",
    "description":"Make your mark at Singapore's largest and best-equipped air weapons range at SAFRA Yishun.",
    "location":"SAFRA - Yishun",
    "image":"/site-images/facilities/listing3.jpg",
    "url":"/IAWR"
  },
  {
    "title":"Kidz Amaze",
    "description":"Romp, rumble and roll up at Kidz Amaze",
    "location":"SAFRA - Jurong, SAFRA - Punggol, SAFRA - Toa Payoh",
    "image":"/site-images/facilities/listing5.jpg",
    "url":"/kids-amaze"
  },
  {
    "title":"Energy One",
    "description":"Sign up now to enjoy a 30% off a 1-Year Silver Membership",
    "location":"SAFRA - Punggol, SAFRA - Mount Faber, SAFRA - Jurong,  SAFRA - Yishun,  SAFRA - Tampines,  SAFRA - Toa Payoh",
    "image":"/site-images/facilities/listing4.jpg",
    "url":"/energy-one"
  },
  {
    "title":"Facility Title",
    "description":"Description  efficitur nunc sed cursus dignissim.",
    "location":"Sample location",
    "image":"/site-images/facilities/listing1.jpg",
    "url":"/facilities-article"
  },
  {
    "title":"Facility Title",
    "description":"Description  efficitur nunc sed cursus dignissim.",
    "location":"Sample location",
    "image":"https://place-hold.it/300x160",
    "url":"/facilities-article"
  },
  {
    "title":"Facility Title",
    "description":"Description  efficitur nunc sed cursus dignissim.",
    "location":"Sample location",
    "image":"https://place-hold.it/300x160",
    "url":"/facilities-article"
  },
  {
    "title":"Facility Title",
    "description":"Description  efficitur nunc sed cursus dignissim.",
    "location":"Sample location",
    "image":"https://place-hold.it/300x160",
    "url":"/facilities-article"
  },
  {
    "title":"Facility Title",
    "description":"Description  efficitur nunc sed cursus dignissim.",
    "location":"Sample location",
    "image":"https://place-hold.it/300x160",
    "url":"/facilities-article"
  },
  {
    "title":"Facility Title",
    "description":"Description  efficitur nunc sed cursus dignissim.",
    "location":"Sample location",
    "image":"https://place-hold.it/300x160",
    "url":"/facilities-article"
  },
  {
    "title":"Facility Title",
    "description":"Description  efficitur nunc sed cursus dignissim.",
    "location":"Sample location",
    "image":"https://place-hold.it/300x160",
    "url":"/facilities-article"
  },
  {
    "title":"Facility Title",
    "description":"Description  efficitur nunc sed cursus dignissim.",
    "location":"Sample location",
    "image":"https://place-hold.it/300x160",
    "url":"/facilities-article"
  },
  {
    "title":"Facility Title",
    "description":"Description  efficitur nunc sed cursus dignissim.",
    "location":"Sample location",
    "image":"https://place-hold.it/300x160",
    "url":"/facilities-article"
  },
  {
    "title":"Facility Title",
    "description":"Description  efficitur nunc sed cursus dignissim.",
    "location":"Sample location",
    "image":"https://place-hold.it/300x160",
    "url":"/facilities-article"
  }
]