[
  {
    "date":"26 Sep 2019",
    "title":"122 Volunteers, Interest Groups and Corporations Honoured for Contributions to NSmen Community"
  },
  {
    "date":"24 Aug 2019",
    "title":"Revamped SAFRA Mount Faber to Offer Regular Programmes for ExecutiveLearning Entertainment Fitness"
  },
  {
    "date":"6 Jul 2019",
    "title":"Tertiary Students Produce Appreciation Videos to Thank National Servicemen"
  },
  {
    "date":"26 Sep 2019",
    "title":"122 Volunteers, Interest Groups and Corporations Honoured for Contributions to NSmen Community"
  },
  {
    "date":"14 Jun 2019",
    "title":"Preschools and Businesses Nationwide Participate in SAFRA Initiatives to Appreciate NSmen"
  },
  {
    "date":"26 Apr 2019",
    "title":"SAFRA Tampines Rejuvenated with New Look and Facilities"
  },
  {
    "date":"10 Nov 2018",
    "title":"SAFRA Choa Chu Kang to be ready in 2022 with more unique fitness facilities for SAF National Servicemen and their Families"
  },
  {
    "date":"14 Oct 2018",
    "title":"Record Number of National Servicemen and Families Swam for Charity at SAFRA Swim for Hope 2018"
  }
]