{
  "primary":[
    {
      "name":"What's On",
      "url":"#",
      "megamenu":[
        {
          "name":"Activities",
          "type":"list",
          "url":"/activity-listing",
          "children":[
            {
              "name":"Sports & Fitness",
              "url":"/activity-listing?category=sports-n-fitness"
            },
            {
              "name":"Education",
              "url":"/activity-listing?category=education"
            },
            {
              "name":"Arts & Creative",
              "url":"/activity-listing?category=arts-n-Creative"
            },
            {
              "name":"Executive Programs",
              "url":"/activity-listing?category=executive-programs"
            },
            {
              "name":"F&B",
              "url":"/activity-listing?category=f-n-b"
            },
            {
              "name":"Social and Talks",
              "url":"/activity-listing?category=social-and-talks"
            },
            {
              "name":"Leisure & Entertainment",
              "url":"/activity-listing?category=leisure-n-entertainment"
            }
          ]
        },
        {
          "name":"Events",
          "type":"list",
          "url":"/event-listing",
          "children":[
            {
              "name":"Family & Kids",
              "url":"/event-listing?category=family-n-kids"
            },
            {
              "name":"Sports",
              "url":"/event-listing?category=sports"
            },
            {
              "name":"Entertainment",
              "url":"/event-listing?category=entertainment"
            },
            {
              "name":"Education",
              "url":"/event-listing?category=education"
            },
            {
              "name":"Social and Talks",
              "url":"/event-listing?category=social-and-talks"
            },
            {
              "name":"Past events",
              "url":"/event-listing?category=past-events"
            }
          ]
        },
        {
          "type":"featured",
          "children":[
            {
              "name":"All our happenings",
              "url":"#",
              "image":{
                "url":"/site-images/megamenu/featured1.jpeg",
                "alt":"Asian young people playing vollyball"
              }
            }
          ]
        }
      ]
    },
    {
      "name":"Our Facilities",
      "url":"/facilities-landing",
      "megamenu":[
        {
          "type":"normal",
          "children":[
            {
              "name":"Outdoor sports",
              "url":"/facilities-listing?category=outdoor-sports"
            },
            {
              "name":"Indoor sports",
              "url":"/facilities-listing?category=indoor-sports"
            },
            {
              "name":"F&B",
              "url":"/facilities-listing?category=f-n-b"
            },
            {
              "name":"Leisure & Entertainment",
              "url":"/facilities-listing?category=leisure-n-entertainment"
            },
            {
              "name":"Function rooms",
              "url":"/function-rooms-landing"
            },
            {
              "name":"Retail & Shopping",
              "url":"/facilities-listing?category=retail-n-shopping"
            },
            {
              "name":"Playgrounds",
              "url":"/facilities-listing?category=playgrounds"
            },
            {
              "name":"Co-working Space",
              "url":"/facilities-listing?category=co-working-space"
            }
          ]
        },
        {
          "type":"featured",
          "children":[
            {
              "name":"All our happenings",
              "url":"#",
              "image":{
                "url":"/site-images/megamenu/featured1.jpeg",
                "alt":"Asian young people playing vollyball"
              }
            }
          ]
        }
      ]
    },
    {
      "name":"Our Services",
      "url":"/services-landing",
      "megamenu":[
        {
          "type":"normal",
          "children":[
            {
              "name":"Chalets & Villas",
              "url":"/services-listing?category=chalets-n-villas"
            },
            {
              "name":"Insurance",
              "url":"/services-listing?category=insurance"
            },
            {
              "name":"Child care & Enrichment",
              "url":"/services-listing?category=child-care-n-enrichment"
            },
            {
              "name":"Cohesion Services",
              "url":"/cohesion-landing"
            },
            {
              "name":"Education schemes",
              "url":"/services-listing?category=education-schemes"
            },
            {
              "name":"Free legal information",
              "url":"/services-listing?category=free-legal-information"
            },
            {
              "name":"Automotive",
              "url":"/services-listing?category=automotive"
            },
            {
              "name":"Health & Beauty",
              "url":"/services-listing?category=health-n-beauty"
            }
          ]
        }
      ]
    },
    {
      "name":"Promotions",
      "url":"/promotions-listing",
      "megamenu":[
        {
          "name":"Featured promotions",
          "type":"list",
          "url":"/featured-promotions",
          "children":[
            {
              "name":"Caltex Promotion",
              "url":"/promotions-article"
            },
            {
              "name":"Shaw Theaters Movies Promotions",
              "url":"/promotions-article"
            },
            {
              "name":"Royal Sporting House Promotions",
              "url":"/promotions-article"
            },
            {
              "name":"Chalet & Villa Promotions",
              "url":"/promotions-article"
            },
            {
              "name":"Sentosa",
              "url":"/promotions-article"
            },
            {
              "name":"Campaign Page",
              "url":"/promotions-article"
            }
          ]
        },
        {
          "name":"Everyday deals",
          "type":"list",
          "url":"/promotions-listing",
          "children":[
            {
              "name":"All Promotions",
              "url":"/promotions-listing"
            },
            {
              "name":"Treats & Deals",
              "url":"/promotions-article"
            },
            {
              "name":"Movie Treats / Online movie contest",
              "url":"/promotions-article"
            },
            {
              "name":"NSF SAFRA member exclusives",
              "url":"/promotions-article"
            },
            {
              "name":"Family Deals",
              "url":"/promotions-article"
            },
            {
              "name":"ACCORD Deals",
              "url":"/promotions-article"
            }
          ]
        }
      ]
    },
    {
      "name":"Membership",
      "url":"/membership-landing",
      "megamenu":[
        {
          "type":"normal",
          "children":[
            {
              "name":"About Membership",
              "url":"#"
            },
            {
              "name":"Membership Promotion",
              "url":"#"
            },
            {
              "name":"Member Privileges",
              "url":"#"
            },
            {
              "name":"SAFRA Rewards Points",
              "url":"/reward-points"
            }
          ]
        }
      ]
    },
    {
      "name":"Interest Groups",
      "url":"/interest-group-listing",
      "megamenu":[
        {
          "type":"normal",
          "children":[
            {
              "name":"Adventure Club",
              "url":"/interest-group-article"
            },
            {
              "name":"Community Services Club",
              "url":"/interest-group-article"
            },
            {
              "name":"Competitive Sports Clubs",
              "url":"/interest-group-article"
            },
            {
              "name":"Dragon Boat Club",
              "url":"/interest-group-article"
            },
            {
              "name":"Golfing Section",
              "url":"/interest-group-article"
            },
            {
              "name":"Photographic Club",
              "url":"/interest-group-article"
            },
            {
              "name":"Running Club",
              "url":"/interest-group-article"
            },
            {
              "name":"SAFRA Digital Media Club",
              "url":"/interest-group-article"
            },
            {
              "name":"Shooting Club",
              "url":"/interest-group-article"
            },
            {
              "name":"Social Badminton Club",
              "url":"/interest-group-article"
            },
            {
              "name":"Tech Club",
              "url":"/interest-group-article"
            },
            {
              "name":"Travel Club",
              "url":"/interest-group-article"
            },
            {
              "name":"Bitez",
              "url":"/interest-group-article"
            },
            {
              "name":"MovieMax",
              "url":"/interest-group-article"
            },
            {
              "name":"FUSE",
              "url":"/interest-group-article"
            },
            {
              "name":"SAFRA Entrepreneurs' Club",
              "url":"/interest-group-article"
            }
          ]
        }
      ]
    }
  ]
}