[
  {
    "type":"Members Exclusive",
    "title":"KF1 Karting Circuit - Up to 35% off per pax",
    "date":"26 Feb 2019 - 31 Dec 2019",
    "image":"/site-images/promotions/gokart.jpg"
  },
  {
    "type":"Members Exclusive",
    "title":"Wild Wild Wet (1-for-1 Day Passes)",
    "date":"26 Feb 2019 - 31 Dec 2019",
    "image":"/site-images/promotions/wildwildwet.jpg"
  },
  {
    "type":"Available to all",
    "title":"BlueSG - 50% off one year subscription (worth $90)",
    "date":"26 Feb 2019 - 31 Dec 2019",
    "image":"/site-images/promotions/bluesg.png"
  },
  {
    "type":"Members Exclusive",
    "title":"Lorem ipsum dolar sit un lorem ikson lorem don ulur sit un.",
    "date":"26 Feb 2019 - 31 Dec 2019",
    "image":"https://place-hold.it/312x268"
  },
  {
    "type":"Members Exclusive",
    "title":"Lorem ipsum dolar sit un lorem ikson lorem don ulur sit un.",
    "date":"26 Feb 2019 - 31 Dec 2019",
    "image":"https://place-hold.it/312x268"
  },
  {
    "type":"Available to all",
    "title":"Lorem ipsum dolar sit un lorem ikson lorem don ulur sit un.",
    "date":"26 Feb 2019 - 31 Dec 2019",
    "image":"https://place-hold.it/312x268"
  },
  {
    "type":"Members Exclusive",
    "title":"KF1 Karting Circuit - Up to 35% off per pax",
    "date":"26 Feb 2019 - 31 Dec 2019",
    "image":"https://place-hold.it/312x268"
  },
  {
    "type":"Members Exclusive",
    "title":"Wild Wild Wet (1-for-1 Day Passes)",
    "date":"26 Feb 2019 - 31 Dec 2019",
    "image":"https://place-hold.it/312x268"
  },
  {
    "type":"Available to all",
    "title":"BlueSG - 50% off one year subscription (worth $90)",
    "date":"26 Feb 2019 - 31 Dec 2019",
    "image":"https://place-hold.it/312x268"
  },
  {
    "type":"Members Exclusive",
    "title":"Lorem ipsum dolar sit un lorem ikson lorem don ulur sit un.",
    "date":"26 Feb 2019 - 31 Dec 2019",
    "image":"https://place-hold.it/312x268"
  },
  {
    "type":"Members Exclusive",
    "title":"Lorem ipsum dolar sit un lorem ikson lorem don ulur sit un.",
    "date":"26 Feb 2019 - 31 Dec 2019",
    "image":"https://place-hold.it/312x268"
  },
  {
    "type":"Available to all",
    "title":"Lorem ipsum dolar sit un lorem ikson lorem don ulur sit un.",
    "date":"26 Feb 2019 - 31 Dec 2019",
    "image":"https://place-hold.it/312x268"
  },
  {
    "type":"Members Exclusive",
    "title":"KF1 Karting Circuit - Up to 35% off per pax",
    "date":"26 Feb 2019 - 31 Dec 2019",
    "image":"https://place-hold.it/312x268"
  },
  {
    "type":"Members Exclusive",
    "title":"Wild Wild Wet (1-for-1 Day Passes)",
    "date":"26 Feb 2019 - 31 Dec 2019",
    "image":"https://place-hold.it/312x268"
  },
  {
    "type":"Available to all",
    "title":"BlueSG - 50% off one year subscription (worth $90)",
    "date":"26 Feb 2019 - 31 Dec 2019",
    "image":"https://place-hold.it/312x268"
  },
  {
    "type":"Members Exclusive",
    "title":"Lorem ipsum dolar sit un lorem ikson lorem don ulur sit un.",
    "date":"26 Feb 2019 - 31 Dec 2019",
    "image":"https://place-hold.it/312x268"
  },
  {
    "type":"Members Exclusive",
    "title":"Lorem ipsum dolar sit un lorem ikson lorem don ulur sit un.",
    "date":"26 Feb 2019 - 31 Dec 2019",
    "image":"https://place-hold.it/312x268"
  },
  {
    "type":"Available to all",
    "title":"Lorem ipsum dolar sit un lorem ikson lorem don ulur sit un.",
    "date":"26 Feb 2019 - 31 Dec 2019",
    "image":"https://place-hold.it/312x268"
  },
  {
    "type":"Members Exclusive",
    "title":"KF1 Karting Circuit - Up to 35% off per pax",
    "date":"26 Feb 2019 - 31 Dec 2019",
    "image":"https://place-hold.it/312x268"
  },
  {
    "type":"Members Exclusive",
    "title":"Wild Wild Wet (1-for-1 Day Passes)",
    "date":"26 Feb 2019 - 31 Dec 2019",
    "image":"https://place-hold.it/312x268"
  },
  {
    "type":"Available to all",
    "title":"BlueSG - 50% off one year subscription (worth $90)",
    "date":"26 Feb 2019 - 31 Dec 2019",
    "image":"https://place-hold.it/312x268"
  },
  {
    "type":"Members Exclusive",
    "title":"Lorem ipsum dolar sit un lorem ikson lorem don ulur sit un.",
    "date":"26 Feb 2019 - 31 Dec 2019",
    "image":"https://place-hold.it/312x268"
  },
  {
    "type":"Members Exclusive",
    "title":"Lorem ipsum dolar sit un lorem ikson lorem don ulur sit un.",
    "date":"26 Feb 2019 - 31 Dec 2019",
    "image":"https://place-hold.it/312x268"
  },
  {
    "type":"Available to all",
    "title":"Lorem ipsum dolar sit un lorem ikson lorem don ulur sit un.",
    "date":"26 Feb 2019 - 31 Dec 2019",
    "image":"https://place-hold.it/312x268"
  },
  {
    "type":"Members Exclusive",
    "title":"KF1 Karting Circuit - Up to 35% off per pax",
    "date":"26 Feb 2019 - 31 Dec 2019",
    "image":"https://place-hold.it/312x268"
  },
  {
    "type":"Members Exclusive",
    "title":"Wild Wild Wet (1-for-1 Day Passes)",
    "date":"26 Feb 2019 - 31 Dec 2019",
    "image":"https://place-hold.it/312x268"
  },
  {
    "type":"Available to all",
    "title":"BlueSG - 50% off one year subscription (worth $90)",
    "date":"26 Feb 2019 - 31 Dec 2019",
    "image":"https://place-hold.it/312x268"
  },
  {
    "type":"Members Exclusive",
    "title":"Lorem ipsum dolar sit un lorem ikson lorem don ulur sit un.",
    "date":"26 Feb 2019 - 31 Dec 2019",
    "image":"https://place-hold.it/312x268"
  },
  {
    "type":"Members Exclusive",
    "title":"Lorem ipsum dolar sit un lorem ikson lorem don ulur sit un.",
    "date":"26 Feb 2019 - 31 Dec 2019",
    "image":"https://place-hold.it/312x268"
  },
  {
    "type":"Available to all",
    "title":"Lorem ipsum dolar sit un lorem ikson lorem don ulur sit un.",
    "date":"26 Feb 2019 - 31 Dec 2019",
    "image":"https://place-hold.it/312x268"
  }
]