[
  {
    "title":"A Party to Remember",
    "description":"Celebrate your child's birthday at SAFRA Yishun",
    "image":"/site-images/nsman/nsman1.jpeg",
    "category":"Activities & Courses"
  },
  {
    "title":"SAFRA NERF Action Xperience Challenge 2019",
    "description":"Compete and conquer with your comrade to win prizes",
    "image":"/site-images/nsman/nsman2.jpeg",
    "category":"events"
  },
  {
    "title":"5 Affordable Valentine's Day Gift Ideas with SAFRAPOINTS",
    "description":"5 Affordable VDay Gift Ideas with SAFRAPOINTS!",
    "image":"/site-images/nsman/nsman3.jpeg",
    "category":"Articles"
  },
  {
    "title":"Lorem ipsum dolor sit amet consectetur.",
    "description":"Lorem ipsum dolor sit amet consectetur, adipisicing elit. Quis nam suscipit vero.",
    "image":"/site-images/nsman/nsman2.jpeg",
    "category":"Articles"
  },
  {
    "title":"Lorem ipsum dolor sit amet consectetur, adipisicing elit.",
    "description":"Lorem ipsum dolor sit amet consectetur, adipisicing elit. Quis nam suscipit vero.",
    "image":"/site-images/nsman/nsman1.jpeg",
    "category":"Activities & Courses"
  },
  {
    "title":"Lorem ipsum dolor sit amet consectetur, adipisicing.",
    "description":"Lorem ipsum dolor sit amet consectetur, adipisicing elit. Quis nam suscipit vero.",
    "image":"/site-images/nsman/nsman3.jpeg",
    "category":"Events"
  },
  {
    "title":"Lorem ipsum dolor sit amet consectetur, adipisicing elit. Quis nam suscipit vero.",
    "description":"Lorem ipsum dolor sit amet consectetur, adipisicing elit. Quis nam suscipit vero.",
    "image":"/site-images/nsman/nsman2.jpeg",
    "category":"Activities & Courses"
  }
]