<svg width="21" height="24" viewBox="0 0 21 24" fill="none" xmlns="http://www.w3.org/2000/svg">
<path d="M18.0752 7.73176L19.3703 7.10466V19.4519L13.9874 22.0757V14.9334L13.3538 15.7765V22.0789L7.65403 19.3009V14.9034L7.01979 14.0532V19.3034L1.63619 21.9285V9.5736L3.70155 8.56664L3.60203 7.99816L1 9.26513V22.8469L7.33334 19.7604L13.6667 22.8469L20 19.7604V6.17865L18.0992 7.10402L18.0752 7.73176Z" fill="#040505" stroke="#030504" stroke-width="0.5" stroke-linecap="round" stroke-linejoin="round"/>
<path d="M16.0015 2.24712C14.5793 0.827285 12.6396 0.0190984 10.6092 0.000334152C8.57874 -0.0184301 6.62384 0.753757 5.17451 2.14705C5.14069 2.18019 5.10946 2.21079 5.07238 2.24712C3.61461 3.67826 2.7959 5.61754 2.7959 7.6394C2.7959 9.66126 3.61461 11.6005 5.07238 13.0317L10.1912 17.9963C10.2866 18.0798 10.41 18.126 10.5379 18.126C10.6659 18.126 10.7893 18.0798 10.8847 17.9963V17.9963L16.0015 12.9456C17.4197 11.5115 18.2126 9.59311 18.2126 7.59638C18.2126 5.59964 17.4197 3.68124 16.0015 2.24712V2.24712ZM15.2209 12.2612L10.5431 16.8829L5.85364 12.2612C4.60277 11.0178 3.90155 9.34216 3.90155 7.59638C3.90155 5.8506 4.60277 4.17494 5.85364 2.93159C6.47091 2.32345 7.20441 1.84039 8.01224 1.50998C8.82007 1.17957 9.68643 1.00828 10.5618 1.00591C11.4372 1.00355 12.3045 1.17013 13.1142 1.49617C13.9239 1.8222 14.6601 2.3013 15.2808 2.9061L15.3075 2.93159C16.5468 4.18604 17.2325 5.86788 17.2165 7.61363C17.2004 9.35938 16.4838 11.0288 15.2216 12.2612H15.2209ZM10.5431 4.30116C9.92114 4.29677 9.31176 4.47318 8.79207 4.80807C8.27238 5.14296 7.86572 5.62129 7.62351 6.1826C7.3813 6.74391 7.3144 7.36298 7.43129 7.96153C7.54818 8.56009 7.84361 9.11123 8.28021 9.5453C8.71681 9.97937 9.27497 10.2769 9.88413 10.4001C10.4933 10.5234 11.1261 10.467 11.7025 10.238C12.279 10.0089 12.7731 9.6176 13.1225 9.11343C13.4719 8.60926 13.6609 8.01489 13.6656 7.4055V7.38257C13.6715 6.57201 13.3488 5.79228 12.7683 5.21465C12.1879 4.63702 11.3972 4.30871 10.5698 4.30181L10.5431 4.30116ZM10.5431 9.43662C10.1285 9.4395 9.72228 9.32186 9.37588 9.09857C9.02947 8.87528 8.75842 8.55637 8.59702 8.18217C8.43561 7.80796 8.39108 7.39525 8.46907 6.99625C8.54707 6.59726 8.74408 6.2299 9.03519 5.94059C9.3263 5.65129 9.69843 5.45304 10.1045 5.37095C10.5106 5.28885 10.9325 5.32658 11.3167 5.47936C11.7009 5.63213 12.0303 5.8931 12.2631 6.22926C12.4959 6.56542 12.6218 6.96167 12.6248 7.36791V7.38257C12.6193 7.92303 12.3987 8.44005 12.0101 8.82366C11.6215 9.20726 11.0954 9.42718 10.5438 9.43662H10.5431Z" fill="#E10032"/>
</svg>
