[
  {
    "Name":"SAFRA Mount Faber",
    "Location":"2 Telok Blangah Way Singapore 098803",
    "Phone":"6278 6011",
    "Email":"mtfaberclub@safra.sg",
    "Coordinates":{
      "lat":"1.277153",
      "long":"103.815339"
    },
    "Link":"/safra-mtfaber"
  },
  {
    "Name":"SAFRA Jurong",
    "Location":"333 Boon Lay Way Singapore 649848",
    "Phone":"6686 4333",
    "Email":"jrclub@safra.sg",
    "Coordinates":{
      "lat":"1.3350704",
      "long":"103.7040917"
    },
    "Link":"/safra-jurong"
  },
  {
    "Name":"SAFRA Tampines",
    "Location":"1/A Tampines Street 92 Singapore 528882",
    "Phone":"6785 8800",
    "Email":"tmclub@safra.sg",
    "Coordinates":{
      "lat":"1.3447574",
      "long":"103.9395683"
    },
    "Link":"/safra-tampines"
  },
  {
    "Name":"SAFRA Toa Payoh",
    "Location":"293 Toa Payoh Lor 6 Singapore 319387",
    "Phone":"6259 4000",
    "Email":"tpclub@safra.sg",
    "Coordinates":{
      "lat":"1.3302333",
      "long":"103.852368"
    },
    "Link":"/safra-toapayoh"
  },
  {
    "Name":"SAFRA Yishun",
    "Location":"60 Yishun Avenue 4 Singapore 769027",
    "Phone":"6278 6011",
    "Email":"ysclub@safra.sg",
    "Coordinates":{
      "lat":"1.4242408",
      "long":"103.8387297"
    },
    "Link":"/safra-yishun"
  },
  {
    "Name":"SAFRA Punggol",
    "Location":"9 Sentul Crescent Singapore 828654",
    "Phone":"6585 8718",
    "Email":"pgclub@safra.sg",
    "Coordinates":{
      "lat":"1.4100586",
      "long":"103.9035551"
    },
    "Link":"/safra-punggol"
  }
]
