{
  "Page":1,
  "TotalCount": 30,
  "Data": [
    {
      "Type":"Members Exclusive",
      "Title":"KF1 Karting Circuit - Up to 35% off per pax",
      "StartDate":"26 Feb 2019",
      "EndDate":"31 Dec 2019",
      "ImageSrc":"/site-images/promotions/gokart.jpg",
      "ImageAlt":"Some Image alt tag",
      "Location":"Yishun",
      "Link":"/promotion-article",
      "Category":"Leisure"
    },
    {
      "Type":"Available to All",
      "Title":"KF1 Karting Circuit - Up to 35% off per pax",
      "StartDate":"26 Feb 2019",
      "EndDate":"31 Dec 2019",
      "ImageSrc":"/site-images/promotions/gokart.jpg",
      "ImageAlt":"Some Image alt tag",
      "Location":"Yishun",
      "Link":"/promotion-article",
      "Category":"Leisure"
    },
    {
      "Type":"Members Exclusive",
      "Title":"KF1 Karting Circuit - Up to 35% off per pax",
      "StartDate":"26 Feb 2019",
      "EndDate":"31 Dec 2019",
      "ImageSrc":"/site-images/promotions/gokart.jpg",
      "ImageAlt":"Some Image alt tag",
      "Location":"Yishun",
      "Link":"/promotion-article",
      "Category":"Leisure"
    },
    {
      "Type":"Available to All",
      "Title":"KF1 Karting Circuit - Up to 35% off per pax",
      "StartDate":"26 Feb 2019",
      "EndDate":"31 Dec 2019",
      "ImageSrc":"/site-images/promotions/gokart.jpg",
      "ImageAlt":"Some Image alt tag",
      "Location":"Yishun",
      "Link":"/promotion-article",
      "Category":"Leisure"
    },
    {
      "Type":"Members Exclusive",
      "Title":"KF1 Karting Circuit - Up to 35% off per pax",
      "StartDate":"26 Feb 2019",
      "EndDate":"31 Dec 2019",
      "ImageSrc":"/site-images/promotions/gokart.jpg",
      "ImageAlt":"Some Image alt tag",
      "Location":"Yishun",
      "Link":"/promotion-article",
      "Category":"Leisure"
    },
    {
      "Type":"Available to All",
      "Title":"KF1 Karting Circuit - Up to 35% off per pax",
      "StartDate":"26 Feb 2019",
      "EndDate":"31 Dec 2019",
      "ImageSrc":"/site-images/promotions/gokart.jpg",
      "ImageAlt":"Some Image alt tag",
      "Location":"Yishun",
      "Link":"/promotion-article",
      "Category":"Leisure"
    }
  ]
}